^E:\STUDY\GAMEDEV_SB\CPP_LESSON\STRING_LESSON\STRING_LESSON\DEBUG\STRING_LESSON.OBJ
E:\STUDY\GAMEDEV_SB\CPP_LESSON\STRING_LESSON\DEBUG\STRING_LESSON.EXE
E:\STUDY\GAMEDEV_SB\CPP_LESSON\STRING_LESSON\STRING_LESSON\DEBUG\STRING_LESSON.ILK
E:\STUDY\GAMEDEV_SB\CPP_LESSON\STRING_LESSON\DEBUG\STRING_LESSON.PDB
